{
	"info": {
		"_postman_id": "c9a113b5-92cb-4665-9f1e-673476547546",
		"name": "AulaSpring",
		"schema": "https://schema.getpostman.com/json/collection/v2.0.0/collection.json"
	},
	"item": [
		{
			"name": "Adicionar novo banco",
			"request": {
				"method": "POST",
				"header": [
					{
						"key": "Content-Type",
						"name": "Content-Type",
						"value": "application/json",
						"type": "text"
					}
				],
				"body": {
					"mode": "raw",
					"raw": "{\n\t\"codigo\" : 1234,\n\t\"nome\" : \"DBC BANK\"\n}"
				},
				"url": "http://localhost:8080/api/banco/novo"
			},
			"response": []
		},
		{
			"name": "Listar todos bancos",
			"request": {
				"method": "GET",
				"header": [],
				"body": {
					"mode": "raw",
					"raw": ""
				},
				"url": "http://localhost:8080/api/banco/"
			},
			"response": []
		}
	]
}